<?xml version="1.0" encoding="UTF-8" standalone="no"?>
<!-- Created with Inkscape (http://www.inkscape.org/) -->

<svg
   width="64"
   height="64"
   version="1.1"
   viewBox="0 0 16.933 16.933"
   id="svg67"
   sodipodi:docname="user-home.svg"
   inkscape:version="1.1.2 (0a00cf5339, 2022-02-04)"
   xmlns:inkscape="http://www.inkscape.org/namespaces/inkscape"
   xmlns:sodipodi="http://sodipodi.sourceforge.net/DTD/sodipodi-0.dtd"
   xmlns:xlink="http://www.w3.org/1999/xlink"
   xmlns="http://www.w3.org/2000/svg"
   xmlns:svg="http://www.w3.org/2000/svg"
   xmlns:rdf="http://www.w3.org/1999/02/22-rdf-syntax-ns#"
   xmlns:cc="http://creativecommons.org/ns#"
   xmlns:dc="http://purl.org/dc/elements/1.1/">
  <sodipodi:namedview
     id="namedview69"
     pagecolor="#ffffff"
     bordercolor="#666666"
     borderopacity="1.0"
     inkscape:pageshadow="2"
     inkscape:pageopacity="0.0"
     inkscape:pagecheckerboard="0"
     showgrid="false"
     inkscape:zoom="12.984375"
     inkscape:cx="31.961492"
     inkscape:cy="31.961492"
     inkscape:window-width="1887"
     inkscape:window-height="1046"
     inkscape:window-x="33"
     inkscape:window-y="0"
     inkscape:window-maximized="1"
     inkscape:current-layer="svg67" />
  <defs
     id="defs17">
    <linearGradient
       id="linearGradient1064"
       x1="-15.961"
       x2="-.30109"
       y1="-43.254"
       y2="-54.196"
       gradientTransform="matrix(1 0 0 1.1 16.669 62.435)"
       gradientUnits="userSpaceOnUse">
      <stop
         stop-color="#8255ff"
         offset="0"
         id="stop2" />
      <stop
         stop-color="#8273ff"
         offset="1"
         id="stop4" />
    </linearGradient>
    <linearGradient
       id="linearGradient1006"
       x1=".52939"
       x2="16.217"
       y1="2.7784"
       y2="14.872"
       gradientTransform="matrix(1,0,0,1.1,16.669,62.435)"
       gradientUnits="userSpaceOnUse">
      <stop
         stop-color="#8255ff"
         offset="0"
         id="stop7" />
      <stop
         stop-color="#8273ff"
         offset="1"
         id="stop9" />
    </linearGradient>
    <linearGradient
       id="linearGradient954"
       x1="-16.14"
       x2="-1.0699"
       y1="-55.616"
       y2="-44.835"
       gradientTransform="matrix(1,0,0,1.1,16.669,62.435)"
       gradientUnits="userSpaceOnUse">
      <stop
         stop-color="#8255ff"
         offset="0"
         id="stop12" />
      <stop
         stop-color="#8273ff"
         offset="1"
         id="stop14" />
    </linearGradient>
    <linearGradient
       id="linearGradient1064-1"
       x1="-15.961"
       x2="-0.30109"
       y1="-43.254002"
       y2="-54.195999"
       gradientTransform="matrix(1,0,0,1.1,16.669,62.435)"
       gradientUnits="userSpaceOnUse"
       xlink:href="#linearGradient1006">
      <stop
         stop-color="#8255ff"
         offset="0"
         id="stop2-5"
         style="stop-color:#5657f5;stop-opacity:1" />
      <stop
         stop-color="#8273ff"
         offset="1"
         id="stop4-9"
         style="stop-color:#6162ea;stop-opacity:1" />
    </linearGradient>
  </defs>
  <metadata
     id="metadata19">
    <rdf:RDF>
      <cc:Work
         rdf:about="">
        <dc:format>image/svg+xml</dc:format>
        <dc:type
           rdf:resource="http://purl.org/dc/dcmitype/StillImage" />
      </cc:Work>
    </rdf:RDF>
  </metadata>
  <g
     fill="#5e4aa6"
     stroke-width=".26458"
     id="g31">
    <circle
       cx="-330.35"
       cy="-328.38"
       r="0"
       id="circle21" />
    <circle
       cx="-312.11"
       cy="-326.25"
       r="0"
       id="circle23" />
    <circle
       cx="-306.02"
       cy="-333.07"
       r="0"
       id="circle25" />
    <circle
       cx="-308.84"
       cy="-326.01"
       r="0"
       id="circle27" />
    <circle
       cx="-328.8"
       cy="-330.45"
       r="0"
       id="circle29" />
  </g>
  <g
     transform="translate(.000295 -.00032978)"
     fill="#5e4aa6"
     stroke-width=".26458"
     id="g43">
    <circle
       cx="-330.35"
       cy="-328.38"
       r="0"
       id="circle33" />
    <circle
       cx="-312.11"
       cy="-326.25"
       r="0"
       id="circle35" />
    <circle
       cx="-306.02"
       cy="-333.07"
       r="0"
       id="circle37" />
    <circle
       cx="-308.84"
       cy="-326.01"
       r="0"
       id="circle39" />
    <circle
       cx="-328.8"
       cy="-330.45"
       r="0"
       id="circle41" />
  </g>
  <g
     id="g3457"
     transform="translate(1.3167188e-4,3.743125e-4)">
    <g
       transform="matrix(1,0,0,1.1,16.669295,63.95567)"
       fill="url(#linearGradient939)"
       stroke-width="0.66145"
       id="g46"
       style="fill:#5657f5;fill-opacity:1">
      <path
         d="m -8.2026,-51.317 h -7.9373 v -3.6379 c 0,-0.36531 0.29614,-0.66144 0.66144,-0.66144 h 5.6223 l 1.6536,1.3229 z"
         fill="url(#linearGradient939)"
         id="path44"
         style="fill:#5657f5;fill-opacity:1" />
    </g>
    <rect
       x="0.52968496"
       y="4.2329702"
       width="15.874"
       height="10.848"
       ry="0.79373002"
       fill="url(#linearGradient1006)"
       id="rect48"
       style="fill:#5657f5;fill-opacity:1" />
    <rect
       x="0.973405"
       y="4.6959701"
       width="14.987"
       height="9.9216995"
       ry="0.29919001"
       fill="#fffffc"
       id="rect50" />
    <path
       d="M 15.742,4.2329 H 8.4661 L 6.8125,5.6881 H 1.1902 c -0.36531,0 -0.66144,0.32575 -0.66144,0.72759 v 7.9373 c 0,0.40184 0.29614,0.72759 0.66144,0.72759 h 14.552 c 0.36531,0 0.66145,-0.32575 0.66145,-0.72759 v -9.3926 c 0,-0.40184 -0.29614,-0.72759 -0.66145,-0.72759 z"
       fill="url(#linearGradient1064)"
       stroke-width="0.69373"
       id="path54"
       style="fill:url(#linearGradient1064-1);fill-opacity:1" />
  </g>
  <g
     transform="matrix(0 -.054052 -.051444 0 28.703 32.383)"
     enable-background="new"
     fill="#6437e1"
     stroke="#8255ff"
     id="g65"
     style="fill:#2d2dbb;fill-opacity:1;stroke:#2d2dbb;stroke-opacity:1">
    <path
       d="m417.99 353.36h12.005v12.011z"
       color="#000000"
       enable-background="accumulate"
       id="path57"
       style="fill:#2d2dbb;fill-opacity:1;stroke:#2d2dbb;stroke-opacity:1" />
    <path
       d="m403.99 433.36h-54.021l-1.5e-4 -52h4.0016l1.5e-4 47.988 54.021 0.0117zm4.0016-76-58.023 2e-5v-4.0117l54.022 0.0117z"
       id="path59"
       style="fill:#2d2dbb;fill-opacity:1;stroke:#2d2dbb;stroke-opacity:1" />
    <path
       d="m395.38 341.93-2.7949 2.8613 49.554 48.57-49.554 48.568 2.7949 2.8613 52.486-51.432z"
       color="#000000"
       color-rendering="auto"
       enable-background="accumulate"
       image-rendering="auto"
       shape-rendering="auto"
       solid-color="#000000"
       style="font-feature-settings:normal;font-variant-alternates:normal;font-variant-caps:normal;font-variant-ligatures:none;font-variant-numeric:normal;font-variant-position:normal;isolation:auto;mix-blend-mode:normal;shape-padding:0;text-decoration-color:#000000;text-decoration-line:none;text-decoration-style:solid;text-indent:0;text-transform:none;white-space:normal;fill:#2d2dbb;fill-opacity:1;stroke:#2d2dbb;stroke-opacity:1"
       id="path61" />
    <path
       d="m388.75 397.36c0.2538-1.0158 0.5239-2.3651 0.80985-4.0476 0.28572-1.6825 0.42858-3.619 0.42858-5.8095 0-1.9682-0.28571-3.6032-0.85748-4.9048-0.5399-1.3016-1.318-2.3333-2.3343-3.0952-0.98451-0.79367-2.1755-1.3492-3.5728-1.6667-1.3974-0.31762-2.9376-0.47618-4.6208-0.47618h-28.63l1.9e-4 20z"
       id="path63"
       style="fill:#2d2dbb;fill-opacity:1;stroke:#2d2dbb;stroke-opacity:1" />
  </g>
</svg>
