<?xml version="1.0" encoding="UTF-8" standalone="no"?>
<!-- Created with Inkscape (http://www.inkscape.org/) -->

<svg
   width="32"
   height="32"
   viewBox="0 0 8.4666665 8.4666669"
   version="1.1"
   id="svg5"
   inkscape:version="1.1.2 (0a00cf5339, 2022-02-04)"
   sodipodi:docname="artix.svg"
   inkscape:export-filename="/home/tgy-tutorials/Scrivania/artix.png"
   inkscape:export-xdpi="96"
   inkscape:export-ydpi="96"
   xmlns:inkscape="http://www.inkscape.org/namespaces/inkscape"
   xmlns:sodipodi="http://sodipodi.sourceforge.net/DTD/sodipodi-0.dtd"
   xmlns="http://www.w3.org/2000/svg"
   xmlns:svg="http://www.w3.org/2000/svg">
  <sodipodi:namedview
     id="namedview7"
     pagecolor="#8c8c8c"
     bordercolor="#666666"
     borderopacity="1.0"
     inkscape:pageshadow="2"
     inkscape:pageopacity="0"
     inkscape:pagecheckerboard="0"
     inkscape:document-units="px"
     showgrid="false"
     units="px"
     inkscape:showpageshadow="false"
     inkscape:zoom="19.499608"
     inkscape:cx="18.256777"
     inkscape:cy="15.410566"
     inkscape:window-width="1920"
     inkscape:window-height="996"
     inkscape:window-x="0"
     inkscape:window-y="28"
     inkscape:window-maximized="1"
     inkscape:current-layer="layer1" />
  <defs
     id="defs2">
    <linearGradient
       id="a"
       gradientTransform="matrix(4.8477747,0,0,4.8479999,-3.3589671,-7.6451138)"
       gradientUnits="userSpaceOnUse"
       x1="-3.7999998e-05"
       x2="0.99996197"
       y1="0.5"
       y2="0.5">
      <stop
         offset="0"
         stop-color="#00c6ff"
         id="stop2" />
      <stop
         offset=".98695652174"
         stop-color="#0072ff"
         id="stop4" />
    </linearGradient>
    <linearGradient
       id="linearGradient2351"
       inkscape:swatch="solid">
      <stop
         style="stop-color:#376ee5;stop-opacity:1;"
         offset="0"
         id="stop2349" />
    </linearGradient>
    <linearGradient
       id="_Linear1"
       x1="0"
       y1="0"
       x2="1"
       y2="0"
       gradientUnits="userSpaceOnUse"
       gradientTransform="matrix(-0.61043245,0.09857519,-0.09857519,-0.61043245,6.0125614,5.3810353)">
      <stop
         offset="0"
         style="stop-color:#10a0cc;stop-opacity:1"
         id="stop33" />
      <stop
         offset="1"
         style="stop-color:#5bbedc;stop-opacity:1"
         id="stop35" />
    </linearGradient>
    <linearGradient
       id="_Linear2"
       x1="0"
       y1="0"
       x2="1"
       y2="0"
       gradientUnits="userSpaceOnUse"
       gradientTransform="matrix(-1.5425811,-0.61151184,0.61151184,-1.5425811,6.379166,6.142468)">
      <stop
         offset="0"
         style="stop-color:#0b7394;stop-opacity:1"
         id="stop38" />
      <stop
         offset="1"
         style="stop-color:#0e90b7;stop-opacity:1"
         id="stop40" />
    </linearGradient>
    <linearGradient
       id="_Linear3"
       x1="0"
       y1="0"
       x2="1"
       y2="0"
       gradientUnits="userSpaceOnUse"
       gradientTransform="matrix(1.65395,0.12099891,-0.12099891,1.65395,2.8437023,4.60004)">
      <stop
         offset="0"
         style="stop-color:#10a0cc;stop-opacity:1"
         id="stop43" />
      <stop
         offset="1"
         style="stop-color:#5bbedc;stop-opacity:1"
         id="stop45" />
    </linearGradient>
    <linearGradient
       id="_Linear4"
       x1="0"
       y1="0"
       x2="1"
       y2="0"
       gradientUnits="userSpaceOnUse"
       gradientTransform="matrix(3.2605103,-1.4273234,1.4273234,3.2605103,2.0877655,6.1483713)">
      <stop
         offset="0"
         style="stop-color:#0b7394;stop-opacity:1"
         id="stop48" />
      <stop
         offset="1"
         style="stop-color:#0e90b7;stop-opacity:1"
         id="stop50" />
    </linearGradient>
    <linearGradient
       id="_Linear5"
       x1="0"
       y1="0"
       x2="1"
       y2="0"
       gradientUnits="userSpaceOnUse"
       gradientTransform="matrix(1.8794756,0.95809712,-0.95809712,1.8794756,3.253351,3.762942)">
      <stop
         offset="0"
         style="stop-color:#10a0cc;stop-opacity:1"
         id="stop53" />
      <stop
         offset="1"
         style="stop-color:#10a0cc;stop-opacity:1"
         id="stop55" />
    </linearGradient>
    <linearGradient
       id="_Linear6"
       x1="0"
       y1="0"
       x2="1"
       y2="0"
       gradientUnits="userSpaceOnUse"
       gradientTransform="matrix(-1.9122602,-1.2207809,1.2207809,-1.9122602,5.5549089,4.465299)">
      <stop
         offset="0"
         style="stop-color:#0b7394;stop-opacity:1"
         id="stop58" />
      <stop
         offset="1"
         style="stop-color:#0e90b7;stop-opacity:1"
         id="stop60" />
    </linearGradient>
    <linearGradient
       id="_Linear7"
       x1="0"
       y1="0"
       x2="1"
       y2="0"
       gradientUnits="userSpaceOnUse"
       gradientTransform="matrix(-0.73700756,0.26930875,-0.26930875,-0.73700756,4.7557944,2.822602)">
      <stop
         offset="0"
         style="stop-color:#10a0cc;stop-opacity:1"
         id="stop63" />
      <stop
         offset="0.58"
         style="stop-color:#43b5d7;stop-opacity:1"
         id="stop65" />
      <stop
         offset="1"
         style="stop-color:#5bbedc;stop-opacity:1"
         id="stop67" />
    </linearGradient>
  </defs>
  <g
     inkscape:label="Livello 1"
     inkscape:groupmode="layer"
     id="layer1">
    <path
       id="path932"
       style="fill:#e6e6e6;stroke-width:1.82785"
       d="M 16 3.4335938 A 12.5665 12.5665 0 0 0 3.4335938 16 A 12.5665 12.5665 0 0 0 16 28.566406 A 12.5665 12.5665 0 0 0 28.566406 16 A 12.5665 12.5665 0 0 0 16 3.4335938 z M 15.990234 6.6289062 L 20.994141 16.876953 L 13.117188 12.492188 L 15.990234 6.6289062 z M 12.296875 14.222656 L 20.914062 17.84375 L 7.890625 23.238281 L 12.296875 14.222656 z M 21.853516 18.59375 L 24.109375 23.214844 L 17.71875 20.972656 L 21.853516 18.59375 z "
       transform="scale(0.26458333)" />
  </g>
  <style
     type="text/css"
     id="style884">
	.st0{fill:#FFFFFF;}
	.st1{fill:#69B53F;}
	.st2{fill:#F8F8F8;}
</style>
</svg>
