<?xml version="1.0" encoding="UTF-8" standalone="no"?>
<!-- Created with Inkscape (http://www.inkscape.org/) -->

<svg
   width="32"
   height="32"
   viewBox="0 0 8.4666665 8.4666669"
   version="1.1"
   id="svg5"
   inkscape:version="1.1.2 (0a00cf5339, 2022-02-04)"
   sodipodi:docname="korora.svg"
   inkscape:export-filename="/home/tgy-tutorials/Scrivania/korora.png"
   inkscape:export-xdpi="96"
   inkscape:export-ydpi="96"
   xmlns:inkscape="http://www.inkscape.org/namespaces/inkscape"
   xmlns:sodipodi="http://sodipodi.sourceforge.net/DTD/sodipodi-0.dtd"
   xmlns="http://www.w3.org/2000/svg"
   xmlns:svg="http://www.w3.org/2000/svg">
  <sodipodi:namedview
     id="namedview7"
     pagecolor="#8c8c8c"
     bordercolor="#666666"
     borderopacity="1.0"
     inkscape:pageshadow="2"
     inkscape:pageopacity="0"
     inkscape:pagecheckerboard="0"
     inkscape:document-units="px"
     showgrid="false"
     units="px"
     inkscape:showpageshadow="false"
     inkscape:zoom="5.7622678"
     inkscape:cx="-33.840843"
     inkscape:cy="-27.680074"
     inkscape:window-width="1920"
     inkscape:window-height="996"
     inkscape:window-x="0"
     inkscape:window-y="28"
     inkscape:window-maximized="1"
     inkscape:current-layer="layer1" />
  <defs
     id="defs2">
    <clipPath
       clipPathUnits="userSpaceOnUse"
       id="clipPath16">
      <path
         d="M 0,792 612,792 612,0 0,0 0,792 Z"
         id="path18"
         inkscape:connector-curvature="0" />
    </clipPath>
    <clipPath
       clipPathUnits="userSpaceOnUse"
       id="clipPath24">
      <path
         d="m 558.893,526.62 37.604,0 0,-14.904 -37.604,0 0,14.904 z"
         id="path26"
         inkscape:connector-curvature="0" />
    </clipPath>
    <clipPath
       clipPathUnits="userSpaceOnUse"
       id="clipPath28">
      <path
         d="m 596.497,511.716 c -6.962,6.661 -20.973,17.643 -31.626,14.277 -5.954,-1.882 -8.839,-7.319 -2.055,-7.441 13.837,-0.25 20.622,0.731 33.681,-6.836"
         id="path30"
         inkscape:connector-curvature="0"
         style="clip-rule:evenodd" />
    </clipPath>
    <clipPath
       clipPathUnits="userSpaceOnUse"
       id="clipPath58">
      <path
         d="m 558.323,524.527 38.192,0 0,-12.815 -38.192,0 0,12.815 z"
         id="path60"
         inkscape:connector-curvature="0" />
    </clipPath>
    <clipPath
       clipPathUnits="userSpaceOnUse"
       id="clipPath62">
      <path
         d="m 596.515,511.712 c -7.452,6.109 -22.261,15.989 -32.626,11.818 -5.793,-2.332 -8.254,-7.974 -1.48,-7.577 13.816,0.809 20.506,2.306 34.106,-4.241"
         id="path64"
         inkscape:connector-curvature="0"
         style="clip-rule:evenodd" />
    </clipPath>
    <clipPath
       clipPathUnits="userSpaceOnUse"
       id="clipPath92">
      <path
         d="m 556.75,546.201 27.01,0 0,-29.575 -27.01,0 0,29.575 z"
         id="path94"
         inkscape:connector-curvature="0" />
    </clipPath>
    <clipPath
       clipPathUnits="userSpaceOnUse"
       id="clipPath96">
      <path
         d="m 556.75,516.626 c 2.252,9.368 8.092,26.186 18.874,29.118 6.024,1.639 11.393,-1.373 5.753,-5.147 -11.502,-7.696 -17.738,-10.542 -24.627,-23.971"
         id="path98"
         inkscape:connector-curvature="0"
         style="clip-rule:evenodd" />
    </clipPath>
    <clipPath
       clipPathUnits="userSpaceOnUse"
       id="clipPath126">
      <path
         d="m 556.739,544.61 28.84,0 0,-27.979 -28.84,0 0,27.979 z"
         id="path128"
         inkscape:connector-curvature="0" />
    </clipPath>
    <clipPath
       clipPathUnits="userSpaceOnUse"
       id="clipPath160">
      <path
         d="m 548.843,543.235 11.247,0 0,-38.495 -11.247,0 0,38.495 z"
         id="path162"
         inkscape:connector-curvature="0" />
    </clipPath>
    <clipPath
       clipPathUnits="userSpaceOnUse"
       id="clipPath194">
      <path
         d="m 547.048,542.875 13.046,0 0,-38.137 -13.046,0 0,38.137 z"
         id="path196"
         inkscape:connector-curvature="0" />
    </clipPath>
    <clipPath
       id="clipPath16-5"
       clipPathUnits="userSpaceOnUse">
      <path
         inkscape:connector-curvature="0"
         id="path18-5"
         d="M 0,792 612,792 612,0 0,0 0,792 Z" />
    </clipPath>
    <clipPath
       id="clipPath24-8"
       clipPathUnits="userSpaceOnUse">
      <path
         inkscape:connector-curvature="0"
         id="path26-2"
         d="m 558.893,526.62 37.604,0 0,-14.904 -37.604,0 0,14.904 z" />
    </clipPath>
    <clipPath
       id="clipPath28-4"
       clipPathUnits="userSpaceOnUse">
      <path
         style="clip-rule:evenodd"
         inkscape:connector-curvature="0"
         id="path30-4"
         d="m 596.497,511.716 c -6.962,6.661 -20.973,17.643 -31.626,14.277 -5.954,-1.882 -8.839,-7.319 -2.055,-7.441 13.837,-0.25 20.622,0.731 33.681,-6.836" />
    </clipPath>
    <linearGradient
       id="linearGradient32"
       spreadMethod="pad"
       gradientTransform="matrix(46.114929,-17.701843,-17.701843,-46.114929,557.35352,526.32031)"
       gradientUnits="userSpaceOnUse"
       y2="0"
       x2="1"
       y1="0"
       x1="0">
      <stop
         id="stop34"
         offset="0"
         style="stop-opacity:1;stop-color:#8f2c30" />
      <stop
         id="stop36"
         offset="0.179993"
         style="stop-opacity:1;stop-color:#ea1d29" />
      <stop
         id="stop38"
         offset="1"
         style="stop-opacity:1;stop-color:#ffffff" />
    </linearGradient>
    <clipPath
       id="clipPath58-4"
       clipPathUnits="userSpaceOnUse">
      <path
         inkscape:connector-curvature="0"
         id="path60-6"
         d="m 558.323,524.527 38.192,0 0,-12.815 -38.192,0 0,12.815 z" />
    </clipPath>
    <clipPath
       id="clipPath62-0"
       clipPathUnits="userSpaceOnUse">
      <path
         style="clip-rule:evenodd"
         inkscape:connector-curvature="0"
         id="path64-0"
         d="m 596.515,511.712 c -7.452,6.109 -22.261,15.989 -32.626,11.818 -5.793,-2.332 -8.254,-7.974 -1.48,-7.577 13.816,0.809 20.506,2.306 34.106,-4.241" />
    </clipPath>
    <linearGradient
       id="linearGradient66"
       spreadMethod="pad"
       gradientTransform="matrix(51.587097,-15.771759,-15.771759,-51.587097,554.13379,524.05078)"
       gradientUnits="userSpaceOnUse"
       y2="0"
       x2="1"
       y1="0"
       x1="0">
      <stop
         id="stop68"
         offset="0"
         style="stop-opacity:1;stop-color:#8f2c30" />
      <stop
         id="stop70"
         offset="0.179993"
         style="stop-opacity:1;stop-color:#ea1d29" />
      <stop
         id="stop72"
         offset="1"
         style="stop-opacity:1;stop-color:#ffffff" />
    </linearGradient>
    <clipPath
       id="clipPath92-2"
       clipPathUnits="userSpaceOnUse">
      <path
         inkscape:connector-curvature="0"
         id="path94-0"
         d="m 556.75,546.201 27.01,0 0,-29.575 -27.01,0 0,29.575 z" />
    </clipPath>
    <clipPath
       id="clipPath96-2"
       clipPathUnits="userSpaceOnUse">
      <path
         style="clip-rule:evenodd"
         inkscape:connector-curvature="0"
         id="path98-7"
         d="m 556.75,516.626 c 2.252,9.368 8.092,26.186 18.874,29.118 6.024,1.639 11.393,-1.373 5.753,-5.147 -11.502,-7.696 -17.738,-10.542 -24.627,-23.971" />
    </clipPath>
    <linearGradient
       id="linearGradient100"
       spreadMethod="pad"
       gradientTransform="matrix(-470.0033,-394.37976,-394.37976,470.0033,826.65918,750.5918)"
       gradientUnits="userSpaceOnUse"
       y2="0"
       x2="1"
       y1="0"
       x1="0">
      <stop
         id="stop102"
         offset="0"
         style="stop-opacity:1;stop-color:#0256a7" />
      <stop
         id="stop104"
         offset="0.210007"
         style="stop-opacity:1;stop-color:#00b2f0" />
      <stop
         id="stop106"
         offset="1"
         style="stop-opacity:1;stop-color:#ffffff" />
    </linearGradient>
    <clipPath
       id="clipPath126-4"
       clipPathUnits="userSpaceOnUse">
      <path
         inkscape:connector-curvature="0"
         id="path128-4"
         d="m 556.739,544.61 28.84,0 0,-27.979 -28.84,0 0,27.979 z" />
    </clipPath>
    <linearGradient
       id="linearGradient134"
       spreadMethod="pad"
       gradientTransform="matrix(-423.64795,-307.79834,-307.79834,423.64795,799.90723,700.38574)"
       gradientUnits="userSpaceOnUse"
       y2="0"
       x2="1"
       y1="0"
       x1="0">
      <stop
         id="stop136"
         offset="0"
         style="stop-opacity:1;stop-color:#0256a7" />
      <stop
         id="stop138"
         offset="0.210007"
         style="stop-opacity:1;stop-color:#00b2f0" />
      <stop
         id="stop140"
         offset="1"
         style="stop-opacity:1;stop-color:#ffffff" />
    </linearGradient>
    <clipPath
       id="clipPath160-7"
       clipPathUnits="userSpaceOnUse">
      <path
         inkscape:connector-curvature="0"
         id="path162-9"
         d="m 548.843,543.235 11.247,0 0,-38.495 -11.247,0 0,38.495 z" />
    </clipPath>
    <linearGradient
       id="linearGradient168"
       spreadMethod="pad"
       gradientTransform="matrix(-3.823822,-54.68309,-54.68309,3.823822,556.54395,548.15527)"
       gradientUnits="userSpaceOnUse"
       y2="0"
       x2="1"
       y1="0"
       x1="0">
      <stop
         id="stop170"
         offset="0"
         style="stop-opacity:1;stop-color:#faa21b" />
      <stop
         id="stop172"
         offset="0.289993"
         style="stop-opacity:1;stop-color:#ffcd23" />
      <stop
         id="stop174"
         offset="1"
         style="stop-opacity:1;stop-color:#ffffff" />
    </linearGradient>
    <clipPath
       id="clipPath194-4"
       clipPathUnits="userSpaceOnUse">
      <path
         inkscape:connector-curvature="0"
         id="path196-8"
         d="m 547.048,542.875 13.046,0 0,-38.137 -13.046,0 0,38.137 z" />
    </clipPath>
    <linearGradient
       id="linearGradient202"
       spreadMethod="pad"
       gradientTransform="matrix(0,-51.865936,-51.865936,0,553.57031,547.28711)"
       gradientUnits="userSpaceOnUse"
       y2="0"
       x2="1"
       y1="0"
       x1="0">
      <stop
         id="stop204"
         offset="0"
         style="stop-opacity:1;stop-color:#faa21b" />
      <stop
         id="stop206"
         offset="0.289993"
         style="stop-opacity:1;stop-color:#ffcd23" />
      <stop
         id="stop208"
         offset="1"
         style="stop-opacity:1;stop-color:#ffffff" />
    </linearGradient>
    <clipPath
       id="clipPath16-0"
       clipPathUnits="userSpaceOnUse">
      <path
         inkscape:connector-curvature="0"
         id="path18-1"
         d="M 0,792 612,792 612,0 0,0 0,792 Z" />
    </clipPath>
    <clipPath
       id="clipPath16-6"
       clipPathUnits="userSpaceOnUse">
      <path
         inkscape:connector-curvature="0"
         id="path18-3"
         d="m 311.058,513.261 c -5.352,-35.909 119.201,-29.157 70.17,-108.22 l 0,0 c 15.4,24.832 72.067,107.631 78.014,128.069 l 0,0 c 6.969,23.957 -13.916,33.881 -42.06,33.879 l 0,0 c -42.481,-0.003 -101.489,-22.62 -106.124,-53.728" />
    </clipPath>
    <clipPath
       id="clipPath36"
       clipPathUnits="userSpaceOnUse">
      <path
         inkscape:connector-curvature="0"
         id="path38"
         d="m 195.725,405.366 c -17.489,-60.118 140.478,-31.868 148.184,19.849 l 0,0 c 5.351,35.909 -119.202,29.156 -70.17,108.22 l 0,0 c -15.4,-24.832 -72.068,-107.631 -78.014,-128.069" />
    </clipPath>
  </defs>
  <g
     inkscape:label="Livello 1"
     inkscape:groupmode="layer"
     id="layer1">
    <path
       id="path2910"
       style="fill:#e6e6e6;stroke-width:0.0560681"
       d="M 4.233441,0.90857917 A 3.3247541,3.3247541 0 0 0 0.90857917,4.2334409 3.3247541,3.3247541 0 0 0 4.233441,7.5577858 3.3247541,3.3247541 0 0 0 7.5577858,4.2334409 3.3247541,3.3247541 0 0 0 4.233441,0.90857917 Z M 5.8622821,2.2728371 c 0.090166,-4.44e-5 0.1452107,0 0.1452107,0 l 0.1989543,0.00207 0.00207,0.199471 c 0,0 0.00678,0.8995552 -0.013953,1.3844116 -0.00397,0.092693 -0.017142,0.18346 -0.044959,0.2738851 C 6.1175911,4.236746 6.0710131,4.3241972 6.025065,4.401909 5.985329,4.4691109 5.938282,4.5321346 5.8881225,4.5894944 c -0.053999,0.061755 -0.112303,0.1162753 -0.1736329,0.1658814 -0.064752,0.052375 -0.1336984,0.099804 -0.2051555,0.1405599 -0.057971,0.033064 -0.1199163,0.063441 -0.1875853,0.08785 -0.075294,0.027158 -0.1496751,0.043925 -0.2170412,0.056844 -0.036026,0.00691 -0.072035,0.012129 -0.1080037,0.01602 -9.644e-4,0.0044 -0.00214,0.00909 -0.0031,0.013436 -0.021746,0.098353 -0.052762,0.1959255 -0.091984,0.2909383 -0.03709,0.08985 -0.080614,0.1877408 -0.1462442,0.2811198 -0.058411,0.083122 -0.1280155,0.1591925 -0.2072225,0.2247925 -0.092165,0.076333 -0.1959589,0.1434368 -0.3121258,0.1932698 -0.1242176,0.053287 -0.2634226,0.0955 -0.412378,0.1054199 -0.4841602,0.032244 -1.363224,0.027389 -1.363224,0.027389 l -0.199474,-0.00207 -0.00155,-0.1989543 c 0,0 -0.0073,-0.900072 0.013436,-1.3849284 0.00396,-0.092692 0.015075,-0.1808762 0.042892,-0.2713012 C 2.3477434,4.2316896 2.3969054,4.1416544 2.4428532,4.0639426 2.4825882,3.9967413 2.5275662,3.9337179 2.5777288,3.8763572 2.6317278,3.8146029 2.6900317,3.760082 2.7513616,3.7104758 2.8161136,3.6581017 2.88506,3.6127387 2.9565171,3.571983 c 0.057972,-0.033064 0.1219846,-0.063441 0.1896526,-0.08785 0.075294,-0.027158 0.1470922,-0.043925 0.2144569,-0.056844 0.035967,-0.0069 0.072602,-0.012581 0.1090375,-0.017053 9.662e-4,-0.00441 0.00162,-0.0096 0.00258,-0.013953 0.021746,-0.098353 0.052245,-0.196442 0.091467,-0.291455 0.03709,-0.08985 0.081131,-0.1877408 0.146761,-0.2811198 0.05841,-0.083122 0.1274968,-0.1586747 0.2067057,-0.2242757 0.092165,-0.076333 0.1964759,-0.1439536 0.3126425,-0.1937866 0.1242176,-0.053287 0.2634229,-0.0955 0.4123777,-0.10542 0.36312,-0.024183 0.9495835,-0.027255 1.2200808,-0.027389 z M 5.5909807,2.6826312 c -0.2576935,7.61e-5 -0.6368777,0.00327 -0.9213908,0.022221 -0.088235,0.00588 -0.1853247,0.031918 -0.2795693,0.072347 -0.073879,0.031693 -0.145809,0.078787 -0.212907,0.1343587 -0.050154,0.041537 -0.096712,0.092451 -0.1348756,0.1467611 -0.038585,0.054899 -0.073355,0.1233453 -0.1054198,0.2010213 -0.019948,0.048323 -0.035279,0.099252 -0.049093,0.1508952 0.059303,0.010293 0.116215,0.02595 0.1720826,0.044442 0.090492,0.029954 0.1763352,0.068394 0.2557983,0.1131714 0.077006,0.043393 0.1496719,0.094243 0.2170409,0.1503783 0.068189,0.056819 0.1333429,0.1197406 0.1912028,0.1896526 0.064832,0.078335 0.1210534,0.164346 0.1700154,0.2537312 0.030468,0.055624 0.061345,0.1177525 0.082166,0.1896525 0.026775,0.092463 0.046983,0.1896426 0.055811,0.2904216 0.056475,-0.010909 0.1076897,-0.022987 0.1514118,-0.038757 0.040811,-0.014721 0.08234,-0.034326 0.1245404,-0.058394 0.053291,-0.030395 0.1055394,-0.065413 0.1524453,-0.1033529 0.045618,-0.036897 0.086444,-0.077577 0.1229899,-0.1193725 0.034896,-0.039904 0.065957,-0.081039 0.091984,-0.125057 0.03908,-0.066095 0.070744,-0.1278442 0.08785,-0.1834513 0.016238,-0.052787 0.024378,-0.10182 0.027388,-0.1720825 0.01668,-0.3897884 0.010899,-0.9526813 0.00982,-1.1580689 C 5.7495166,2.6830683 5.6768797,2.682606 5.5909819,2.6826313 Z M 3.8417336,3.8138283 c 0.00718,0.062274 0.020313,0.1259592 0.038757,0.1896525 0.00934,0.032247 0.024889,0.068016 0.046509,0.107487 0.036434,0.066515 0.078622,0.131049 0.1271238,0.1896525 0.040597,0.049052 0.088049,0.094393 0.138493,0.1364258 0.048971,0.040805 0.1016555,0.078604 0.1565796,0.109554 0.060139,0.033888 0.1218271,0.061766 0.1834512,0.082166 0.03109,0.01029 0.062369,0.017755 0.093534,0.023771 -0.00722,-0.0618 -0.020484,-0.1249964 -0.038758,-0.1881022 -0.00934,-0.032247 -0.025406,-0.070084 -0.047026,-0.109554 C 4.5039632,4.2883656 4.4602252,4.2243482 4.4117229,4.1657447 4.3711269,4.1166933 4.3252249,4.0708358 4.2747804,4.0288022 4.2258094,3.9879968 4.1715744,3.9522649 4.1166503,3.9213152 4.0565113,3.8874274 3.994829,3.8579995 3.9331991,3.8375994 3.9028551,3.8275558 3.8721631,3.8198394 3.8417321,3.8138282 Z m -0.4066937,0.010335 c -0.056908,0.010962 -0.1084392,0.022885 -0.1524453,0.038757 -0.04081,0.01472 -0.082857,0.036393 -0.1250571,0.060461 -0.053291,0.030394 -0.1034714,0.063862 -0.1503783,0.1018026 -0.045618,0.036897 -0.088511,0.07706 -0.1250569,0.1188557 -0.034894,0.039901 -0.065441,0.083105 -0.091467,0.1271241 -0.03908,0.066095 -0.070744,0.1257771 -0.08785,0.1813842 -0.016241,0.052786 -0.022828,0.10182 -0.025838,0.1720826 -0.016699,0.3904465 -0.012449,0.9561174 -0.011369,1.1601358 0.2028135,3.2e-4 0.7532976,0.00357 1.1327474,-0.021704 0.088235,-0.00588 0.1832576,-0.033468 0.2775027,-0.073897 0.073879,-0.031693 0.1473592,-0.079303 0.214457,-0.1348755 0.050156,-0.041539 0.096712,-0.090384 0.1348755,-0.144694 0.038586,-0.054899 0.071288,-0.125412 0.1033529,-0.2030883 0.02046,-0.049565 0.038057,-0.1005652 0.05271,-0.1529623 -0.06027,-0.010286 -0.1195207,-0.02378 -0.1757,-0.042375 C 4.31503,4.9812177 4.2291881,4.9427766 4.149725,4.8979998 4.072719,4.854607 4.0005698,4.8037569 3.9332008,4.7476214 3.8650113,4.6908016 3.8014074,4.6278786 3.7435483,4.5579689 3.6787158,4.4796337 3.6204276,4.39569 3.5714659,4.3063047 3.5409979,4.2506808 3.5127039,4.187002 3.4918839,4.1151019 3.4651159,4.022661 3.4444199,3.9250107 3.4350399,3.8241636 Z" />
  </g>
  <style
     type="text/css"
     id="style884">
	.st0{fill:#FFFFFF;}
	.st1{fill:#69B53F;}
	.st2{fill:#F8F8F8;}
</style>
</svg>
