<?xml version="1.0" encoding="UTF-8" standalone="no"?>
<!-- Created with Inkscape (http://www.inkscape.org/) -->

<svg
   width="32"
   height="32"
   viewBox="0 0 8.4666665 8.4666669"
   version="1.1"
   id="svg5"
   inkscape:version="1.1.2 (0a00cf5339, 2022-02-04)"
   sodipodi:docname="linux.svg"
   inkscape:export-filename="/home/tgy-tutorials/Scrivania/linux.png"
   inkscape:export-xdpi="96"
   inkscape:export-ydpi="96"
   xmlns:inkscape="http://www.inkscape.org/namespaces/inkscape"
   xmlns:sodipodi="http://sodipodi.sourceforge.net/DTD/sodipodi-0.dtd"
   xmlns="http://www.w3.org/2000/svg"
   xmlns:svg="http://www.w3.org/2000/svg">
  <sodipodi:namedview
     id="namedview7"
     pagecolor="#8c8c8c"
     bordercolor="#666666"
     borderopacity="1.0"
     inkscape:pageshadow="2"
     inkscape:pageopacity="0"
     inkscape:pagecheckerboard="0"
     inkscape:document-units="px"
     showgrid="false"
     units="px"
     inkscape:showpageshadow="false"
     inkscape:zoom="11.071404"
     inkscape:cx="8.7613098"
     inkscape:cy="6.81937"
     inkscape:window-width="1920"
     inkscape:window-height="996"
     inkscape:window-x="0"
     inkscape:window-y="28"
     inkscape:window-maximized="1"
     inkscape:current-layer="layer1" />
  <defs
     id="defs2" />
  <g
     inkscape:label="Livello 1"
     inkscape:groupmode="layer"
     id="layer1">
    <path
       d="M 5.1011459,3.0229393 C 4.9619228,3.1157543 4.5210497,3.3676822 4.454753,3.4174047 4.3254744,3.5201646 4.2061403,3.513535 4.0768617,3.4140897 4.0105647,3.3610522 3.5696919,3.1091248 3.4304688,3.0196242 3.2713567,2.9168643 3.2813012,2.7875857 3.4569878,2.7146593 4.0006209,2.4859356 4.5442538,2.5025098 5.0845721,2.7246093 5.246999,2.7942213 5.2536287,2.9234994 5.1011461,3.0229445 M 7.4944572,5.4361396 C 7.1861775,4.7433389 6.7651935,4.1135202 6.2215604,3.5599426 6.0458742,3.3776267 5.9364846,3.1721069 5.8701879,2.9367536 5.8370399,2.8273646 5.8138359,2.7146595 5.7906318,2.6019552 5.7243347,2.3102497 5.6945018,2.0119145 5.5585932,1.7367831 5.3166103,1.2130391 4.8956262,0.94122247 4.2856964,0.91801867 3.6857112,0.93459267 3.2382084,1.1865204 2.9763364,1.7135793 2.9067254,1.8561171 2.8570023,2.0052848 2.8238539,2.1577671 2.7675019,2.4096947 2.7177787,2.6715667 2.6581122,2.9268091 2.6083902,3.1422733 2.5089446,3.3279042 2.339888,3.493646 1.8061994,4.0140751 1.3785856,4.6107455 1.0537317,5.267083 1.0073237,5.363213 0.9609167,5.4593434 0.9310826,5.5587884 0.8681006,5.7775677 1.0272126,5.9300501 1.2592513,5.8770128 1.4051041,5.8471788 1.5509568,5.8173458 1.6901799,5.7742527 1.8260882,5.7245307 1.8791255,5.7576787 1.912274,5.8902717 2.1277382,6.6029614 2.5984449,7.1035015 3.3177642,7.3819477 4.6834764,7.899062 6.2779124,7.1631686 6.6226553,5.863753 6.6458593,5.774252 6.6790073,5.7411038 6.7784525,5.774252 6.930935,5.82066 7.0867322,5.853808 7.2425295,5.890271 c 0.1624269,0.029834 0.281761,-0.053037 0.304965,-0.2121492 0.00995,-0.086186 -0.019889,-0.162427 -0.053037,-0.241983"
       id="path3522"
       style="fill:#e6e6e6;fill-opacity:1;stroke-width:0.331483" />
  </g>
  <style
     type="text/css"
     id="style884">
	.st0{fill:#FFFFFF;}
	.st1{fill:#69B53F;}
	.st2{fill:#F8F8F8;}
</style>
</svg>
