<?xml version="1.0" encoding="UTF-8" standalone="no"?>
<!-- Created with Inkscape (http://www.inkscape.org/) -->

<svg
   width="32"
   height="32"
   viewBox="0 0 8.4666665 8.4666669"
   version="1.1"
   id="svg5"
   inkscape:version="1.1.2 (0a00cf5339, 2022-02-04)"
   sodipodi:docname="SystemRescueCD.svg"
   inkscape:export-filename="/home/tgy-tutorials/Scrivania/SystemRescueCD.png"
   inkscape:export-xdpi="96"
   inkscape:export-ydpi="96"
   xmlns:inkscape="http://www.inkscape.org/namespaces/inkscape"
   xmlns:sodipodi="http://sodipodi.sourceforge.net/DTD/sodipodi-0.dtd"
   xmlns:xlink="http://www.w3.org/1999/xlink"
   xmlns="http://www.w3.org/2000/svg"
   xmlns:svg="http://www.w3.org/2000/svg">
  <sodipodi:namedview
     id="namedview7"
     pagecolor="#8c8c8c"
     bordercolor="#666666"
     borderopacity="1.0"
     inkscape:pageshadow="2"
     inkscape:pageopacity="0"
     inkscape:pagecheckerboard="0"
     inkscape:document-units="px"
     showgrid="false"
     units="px"
     inkscape:showpageshadow="false"
     inkscape:zoom="11.071404"
     inkscape:cx="2.4387152"
     inkscape:cy="5.3742057"
     inkscape:window-width="1920"
     inkscape:window-height="996"
     inkscape:window-x="0"
     inkscape:window-y="28"
     inkscape:window-maximized="1"
     inkscape:current-layer="layer1" />
  <defs
     id="defs2">
    <linearGradient
       id="linearGradient6147-1-1-4-4-7-0-6-1">
      <stop
         id="stop6149-6-3-9-3-3-6-7-8"
         offset="0"
         style="stop-color:#5f8dd3;stop-opacity:1;" />
      <stop
         id="stop6151-5-0-9-5-1-1-4-6"
         offset="1"
         style="stop-color:#162d50;stop-opacity:1;" />
    </linearGradient>
    <radialGradient
       inkscape:collect="always"
       xlink:href="#linearGradient6147-1-1-4-4-7-0-6-1"
       id="radialGradient5132"
       gradientUnits="userSpaceOnUse"
       gradientTransform="matrix(0.68941368,0.68941368,-0.68941893,0.68941893,199.77384,-532.32858)"
       spreadMethod="pad"
       cx="1027.8583"
       cy="477.45059"
       fx="1027.8583"
       fy="477.45059"
       r="57.480274" />
  </defs>
  <g
     inkscape:label="Livello 1"
     inkscape:groupmode="layer"
     id="layer1">
    <path
       id="path15732"
       style="fill:#e6e6e6;fill-opacity:1;stroke:none;stroke-width:12.8052;stroke-linecap:round;stroke-miterlimit:4;stroke-dasharray:none;stroke-opacity:1"
       d="M 4.232924,0.90857917 A 3.3247541,3.3247541 0 0 0 0.90857917,4.2334408 3.3247541,3.3247541 0 0 0 4.232924,7.5583025 3.3247541,3.3247541 0 0 0 7.5577857,4.2334408 3.3247541,3.3247541 0 0 0 4.232924,0.90857917 Z M 4.3807186,2.2004899 A 2.0331891,2.0331891 0 0 1 6.4141863,4.2334408 2.0331891,2.0331891 0 0 1 4.3807186,6.2669084 c -0.4653742,0 -0.8944001,-0.1580739 -1.2423015,-0.4201294 L 3.463462,5.5212175 C 3.7232582,5.7019454 4.0418538,5.8147396 4.3807186,5.8147396 A 1.5813692,1.5813692 0 0 0 5.9620176,4.2334408 1.5813692,1.5813692 0 0 0 4.3807186,2.6521421 1.5813692,1.5813692 0 0 0 2.7994197,4.2334408 H 3.4774145 L 2.5735939,5.1372616 1.669773,4.2334408 H 2.3477678 A 2.0331891,2.0331891 0 0 1 4.3807186,2.2004899 Z m 0,1.5812989 a 0.45181977,0.45181977 0 0 1 0.451652,0.451652 0.45181977,0.45181977 0 0 1 -0.451652,0.4521688 0.45181977,0.45181977 0 0 1 -0.4516519,-0.4521688 0.45181977,0.45181977 0 0 1 0.4516519,-0.451652 z" />
  </g>
  <style
     type="text/css"
     id="style884">
	.st0{fill:#FFFFFF;}
	.st1{fill:#69B53F;}
	.st2{fill:#F8F8F8;}
</style>
</svg>
