<?xml version="1.0" encoding="UTF-8" standalone="no"?>
<!-- Created with Inkscape (http://www.inkscape.org/) -->

<svg
   width="64"
   height="64"
   version="1.1"
   viewBox="0 0 16.933 16.933"
   id="svg81"
   sodipodi:docname="folder-download.svg"
   inkscape:version="1.1.2 (0a00cf5339, 2022-02-04)"
   xmlns:inkscape="http://www.inkscape.org/namespaces/inkscape"
   xmlns:sodipodi="http://sodipodi.sourceforge.net/DTD/sodipodi-0.dtd"
   xmlns:xlink="http://www.w3.org/1999/xlink"
   xmlns="http://www.w3.org/2000/svg"
   xmlns:svg="http://www.w3.org/2000/svg"
   xmlns:rdf="http://www.w3.org/1999/02/22-rdf-syntax-ns#"
   xmlns:cc="http://creativecommons.org/ns#"
   xmlns:dc="http://purl.org/dc/elements/1.1/">
  <sodipodi:namedview
     id="namedview83"
     pagecolor="#ffffff"
     bordercolor="#666666"
     borderopacity="1.0"
     inkscape:pageshadow="2"
     inkscape:pageopacity="0.0"
     inkscape:pagecheckerboard="0"
     showgrid="false"
     inkscape:zoom="6.4921875"
     inkscape:cx="9.7039711"
     inkscape:cy="1.5403129"
     inkscape:window-width="1887"
     inkscape:window-height="1046"
     inkscape:window-x="33"
     inkscape:window-y="0"
     inkscape:window-maximized="1"
     inkscape:current-layer="svg81" />
  <defs
     id="defs19">
    <style
       type="text/css"
       id="style2" />
    <linearGradient
       id="linearGradient1064"
       x1="-15.961"
       x2="-.30109"
       y1="-43.254"
       y2="-54.196"
       gradientTransform="matrix(1,0,0,1.1,16.669,62.435)"
       gradientUnits="userSpaceOnUse">
      <stop
         stop-color="#8255ff"
         offset="0"
         id="stop4" />
      <stop
         stop-color="#8273ff"
         offset="1"
         id="stop6" />
    </linearGradient>
    <linearGradient
       id="linearGradient1006"
       x1=".52939"
       x2="16.217"
       y1="2.7784"
       y2="14.872"
       gradientTransform="matrix(1,0,0,1.1,16.669,62.435)"
       gradientUnits="userSpaceOnUse">
      <stop
         stop-color="#8255ff"
         offset="0"
         id="stop9" />
      <stop
         stop-color="#8273ff"
         offset="1"
         id="stop11" />
    </linearGradient>
    <linearGradient
       id="linearGradient968"
       x1="-16.14"
       x2="-1.0699"
       y1="-55.616"
       y2="-44.835"
       gradientTransform="matrix(1,0,0,1.1,16.669,62.435)"
       gradientUnits="userSpaceOnUse">
      <stop
         stop-color="#8255ff"
         offset="0"
         id="stop14" />
      <stop
         stop-color="#8273ff"
         offset="1"
         id="stop16" />
    </linearGradient>
    <linearGradient
       id="linearGradient1064-1"
       x1="-15.961"
       x2="-0.30109"
       y1="-43.254002"
       y2="-54.195999"
       gradientTransform="matrix(1,0,0,1.1,16.669,62.435)"
       gradientUnits="userSpaceOnUse"
       xlink:href="#linearGradient1006">
      <stop
         stop-color="#8255ff"
         offset="0"
         id="stop2"
         style="stop-color:#5657f5;stop-opacity:1" />
      <stop
         stop-color="#8273ff"
         offset="1"
         id="stop4-1"
         style="stop-color:#6162ea;stop-opacity:1" />
    </linearGradient>
  </defs>
  <metadata
     id="metadata21">
    <rdf:RDF>
      <cc:Work
         rdf:about="">
        <dc:format>image/svg+xml</dc:format>
        <dc:type
           rdf:resource="http://purl.org/dc/dcmitype/StillImage" />
      </cc:Work>
    </rdf:RDF>
  </metadata>
  <g
     fill="#5e4aa6"
     stroke-width=".26458"
     id="g57">
    <circle
       cx="-330.35"
       cy="-328.38"
       r="0"
       id="circle23" />
    <circle
       cx="-312.11"
       cy="-326.25"
       r="0"
       id="circle25" />
    <circle
       cx="-306.02"
       cy="-333.07"
       r="0"
       id="circle27" />
    <circle
       cx="-308.84"
       cy="-326.01"
       r="0"
       id="circle29" />
    <circle
       cx="-328.8"
       cy="-330.45"
       r="0"
       id="circle31" />
    <g
       transform="translate(-21.76 -10.352)"
       id="g43">
      <circle
         cx="-330.35"
         cy="-328.38"
         r="0"
         id="circle33" />
      <circle
         cx="-312.11"
         cy="-326.25"
         r="0"
         id="circle35" />
      <circle
         cx="-306.02"
         cy="-333.07"
         r="0"
         id="circle37" />
      <circle
         cx="-308.84"
         cy="-326.01"
         r="0"
         id="circle39" />
      <circle
         cx="-328.8"
         cy="-330.45"
         r="0"
         id="circle41" />
    </g>
    <g
       transform="translate(.000295 -.00033978)"
       id="g55">
      <circle
         cx="-330.35"
         cy="-328.38"
         r="0"
         id="circle45" />
      <circle
         cx="-312.11"
         cy="-326.25"
         r="0"
         id="circle47" />
      <circle
         cx="-306.02"
         cy="-333.07"
         r="0"
         id="circle49" />
      <circle
         cx="-308.84"
         cy="-326.01"
         r="0"
         id="circle51" />
      <circle
         cx="-328.8"
         cy="-330.45"
         r="0"
         id="circle53" />
    </g>
  </g>
  <g
     id="g2555"
     transform="translate(1.3167188e-4,3.743125e-4)">
    <g
       transform="matrix(1,0,0,1.1,16.669295,63.95567)"
       fill="url(#linearGradient939)"
       stroke-width="0.66145"
       id="g46"
       style="fill:#5657f5;fill-opacity:1">
      <path
         d="m -8.2026,-51.317 h -7.9373 v -3.6379 c 0,-0.36531 0.29614,-0.66144 0.66144,-0.66144 h 5.6223 l 1.6536,1.3229 z"
         fill="url(#linearGradient939)"
         id="path44"
         style="fill:#5657f5;fill-opacity:1" />
    </g>
    <rect
       x="0.52968496"
       y="4.2329702"
       width="15.874"
       height="10.848"
       ry="0.79373002"
       fill="url(#linearGradient1006)"
       id="rect48"
       style="fill:#5657f5;fill-opacity:1" />
    <rect
       x="0.973405"
       y="4.6959701"
       width="14.987"
       height="9.9216995"
       ry="0.29919001"
       fill="#fffffc"
       id="rect50" />
    <path
       d="M 15.742,4.2329 H 8.4661 L 6.8125,5.6881 H 1.1902 c -0.36531,0 -0.66144,0.32575 -0.66144,0.72759 v 7.9373 c 0,0.40184 0.29614,0.72759 0.66144,0.72759 h 14.552 c 0.36531,0 0.66145,-0.32575 0.66145,-0.72759 v -9.3926 c 0,-0.40184 -0.29614,-0.72759 -0.66145,-0.72759 z"
       fill="url(#linearGradient1064)"
       stroke-width="0.69373"
       id="path54"
       style="fill:url(#linearGradient1064-1);fill-opacity:1" />
  </g>
  <g
     transform="translate(-4.8948)"
     fill="#6437e1"
     id="g79"
     style="fill:#2d2dbb;fill-opacity:1">
    <path
       transform="scale(.26458)"
       d="m44 30c-1.108 0-2 0.892-2 2v17c0 1.108 0.892 2 2 2h13c1.108 0 2-0.892 2-2v-17c0-1.108-0.892-2-2-2h-3a0.5 0.5 0 0 0-0.49805 0.5 0.5 0.5 0 0 0 0.49805 0.5 0.5 0.5 0 0 0 2e-3 0h2.998c0.554 0 1 0.446 1 1v17c0 0.554-0.446 1-1 1h-13c-0.554 0-1-0.446-1-1v-17c0-0.554 0.446-1 1-1h3.998a0.5 0.5 0 0 0 2e-3 0 0.5 0.5 0 0 0 0.49805-0.5 0.5 0.5 0 0 0-0.49805-0.5h-2e-3z"
       id="path71"
       style="fill:#2d2dbb;fill-opacity:1" />
    <rect
       x="13.229"
       y="7.9373"
       width=".26458"
       height="4.4978"
       ry=".13229"
       id="rect73"
       style="fill:#2d2dbb;fill-opacity:1" />
    <rect
       transform="rotate(45)"
       x="18.015"
       y="-2.4683"
       width=".26458"
       height="1.852"
       ry=".13229"
       id="rect75"
       style="fill:#2d2dbb;fill-opacity:1" />
    <rect
       transform="matrix(-.70711 .70711 .70711 .70711 0 0)"
       x="-.88063"
       y="16.427"
       width=".26458"
       height="1.852"
       ry=".13229"
       id="rect77"
       style="fill:#2d2dbb;fill-opacity:1" />
  </g>
</svg>
