<?xml version="1.0" encoding="UTF-8" standalone="no"?>
<!-- Uploaded to: SVG Repo, www.svgrepo.com, Generator: SVG Repo Mixer Tools -->

<svg
   height="96"
   width="96"
   version="1.1"
   viewBox="0 0 7.68 7.68"
   xml:space="preserve"
   id="svg46"
   sodipodi:docname="gpick.svg"
   inkscape:version="1.1.2 (0a00cf5339, 2022-02-04)"
   xmlns:inkscape="http://www.inkscape.org/namespaces/inkscape"
   xmlns:sodipodi="http://sodipodi.sourceforge.net/DTD/sodipodi-0.dtd"
   xmlns="http://www.w3.org/2000/svg"
   xmlns:svg="http://www.w3.org/2000/svg"><defs
   id="defs50">
	
	
	
	
	
	
	
	
	
	

		
	
		
	
		
	
		
	
		
	
		
	
		
	
		
	
		
	
		
	</defs><sodipodi:namedview
   id="namedview48"
   pagecolor="#ffffff"
   bordercolor="#666666"
   borderopacity="1.0"
   inkscape:pageshadow="2"
   inkscape:pageopacity="0.0"
   inkscape:pagecheckerboard="0"
   showgrid="false"
   inkscape:zoom="5.0892508"
   inkscape:cx="5.5017921"
   inkscape:cy="35.368664"
   inkscape:window-width="1887"
   inkscape:window-height="1046"
   inkscape:window-x="33"
   inkscape:window-y="0"
   inkscape:window-maximized="1"
   inkscape:current-layer="svg46" />
<style
   type="text/css"
   id="style2">
	.st0{fill:#76C2AF;}
	.st1{fill:#4F5D73;}
	.st2{opacity:0.2;}
	.st3{fill:#231F20;}
	.st4{fill:#FFFFFF;}
</style>

<g
   id="Layer_2">
</g>
<style
   type="text/css"
   id="style870">
	.st0{fill:#000000;}
</style><g
   id="g874"
   transform="matrix(0.01472879,0,0,0.01472879,0.06943704,0.06942231)"
   style="fill:#5657f5;fill-opacity:1">
	<path
   class="st0"
   d="m 256.001,0 h -0.002 c 0,0 -211.205,134.961 -211.205,300.793 0,58.324 23.64,111.125 61.859,149.346 26.277,26.277 59.445,45.662 96.562,55.212 16.871,4.341 34.559,6.65 52.783,6.65 H 256 c 18.225,0 35.912,-2.308 52.783,-6.65 37.115,-9.55 70.283,-28.934 96.561,-55.212 38.22,-38.221 61.861,-91.022 61.861,-149.346 C 467.206,134.961 256.001,0 256.001,0 Z m 139.707,353.274 c -13,-2.578 -21.449,-15.207 -18.871,-28.211 1.574,-7.922 2.371,-16.086 2.371,-24.27 0,-17.207 -4.262,-35.82 -12.66,-55.32 -7.769,-18.02 -19.117,-36.934 -33.73,-56.215 -5.508,-7.27 -11.547,-14.672 -17.941,-22 -8.715,-9.988 -7.684,-25.149 2.301,-33.864 10,-8.711 25.156,-7.676 33.863,2.301 7.117,8.156 13.859,16.422 20.031,24.57 16.949,22.363 30.258,44.637 39.555,66.211 11.004,25.535 16.582,50.539 16.582,74.316 0,11.313 -1.106,22.621 -3.285,33.614 -2.27,11.422 -12.297,19.332 -23.516,19.332 -1.552,0 -3.122,-0.148 -4.7,-0.464 z"
   id="path872"
   style="fill:#5657f5;fill-opacity:1" />
</g></svg>
