<?xml version="1.0" encoding="UTF-8" standalone="no"?>
<svg
   width="96"
   height="96"
   version="1.1"
   viewBox="0 0 96 96"
   id="svg81"
   sodipodi:docname="inkscape.svg"
   inkscape:version="1.1.2 (0a00cf5339, 2022-02-04)"
   xmlns:inkscape="http://www.inkscape.org/namespaces/inkscape"
   xmlns:sodipodi="http://sodipodi.sourceforge.net/DTD/sodipodi-0.dtd"
   xmlns="http://www.w3.org/2000/svg"
   xmlns:svg="http://www.w3.org/2000/svg">
  <sodipodi:namedview
     id="namedview83"
     pagecolor="#ffffff"
     bordercolor="#666666"
     borderopacity="1.0"
     inkscape:pageshadow="2"
     inkscape:pageopacity="0.0"
     inkscape:pagecheckerboard="0"
     showgrid="false"
     inkscape:zoom="7.3044498"
     inkscape:cx="40.933952"
     inkscape:cy="47.368386"
     inkscape:window-width="1887"
     inkscape:window-height="1046"
     inkscape:window-x="33"
     inkscape:window-y="0"
     inkscape:window-maximized="1"
     inkscape:current-layer="svg81" />
  <defs
     id="defs61">
    <style
       id="current-color-scheme"
       type="text/css">
   .ColorScheme-Text { color:#ebdbb2; } .ColorScheme-Highlight { color:#458588; }
  </style>
    <linearGradient
       id="arrongin"
       x1="0"
       x2="0"
       y1="0"
       y2="1">
      <stop
         offset="0%"
         style="stop-color:#d79921; stop-opacity:1"
         id="stop3" />
      <stop
         offset="100%"
         style="stop-color:#b57614; stop-opacity:1"
         id="stop5" />
    </linearGradient>
    <linearGradient
       id="aurora"
       x1="0"
       x2="0"
       y1="0"
       y2="1">
      <stop
         offset="0%"
         style="stop-color:#83a598; stop-opacity:1"
         id="stop8" />
      <stop
         offset="100%"
         style="stop-color:#b16286; stop-opacity:1"
         id="stop10" />
    </linearGradient>
    <linearGradient
       id="fitdance"
       x1="0"
       x2="0"
       y1="0"
       y2="1">
      <stop
         offset="0%"
         style="stop-color:#8ec07c; stop-opacity:1"
         id="stop13" />
      <stop
         offset="100%"
         style="stop-color:#458588; stop-opacity:1"
         id="stop15" />
    </linearGradient>
    <linearGradient
       id="oomox"
       x1="0"
       x2="0"
       y1="0"
       y2="1">
      <stop
         offset="0%"
         style="stop-color:#458588; stop-opacity:1"
         id="stop18" />
      <stop
         offset="100%"
         style="stop-color:#928374; stop-opacity:1"
         id="stop20" />
    </linearGradient>
    <linearGradient
       id="rainblue"
       x1="0"
       x2="0"
       y1="0"
       y2="1">
      <stop
         offset="0%"
         style="stop-color:#b8bb26; stop-opacity:1"
         id="stop23" />
      <stop
         offset="100%"
         style="stop-color:#076678; stop-opacity:1"
         id="stop25" />
    </linearGradient>
    <linearGradient
       id="sunrise"
       x1="0"
       x2="0"
       y1="0"
       y2="1">
      <stop
         offset="0%"
         style="stop-color: #fe8019; stop-opacity:1"
         id="stop28" />
      <stop
         offset="100%"
         style="stop-color: #fabd2f; stop-opacity:1"
         id="stop30" />
    </linearGradient>
    <linearGradient
       id="telinkrin"
       x1="0"
       x2="0"
       y1="0"
       y2="1">
      <stop
         offset="0%"
         style="stop-color: #83a598; stop-opacity:1"
         id="stop33" />
      <stop
         offset="100%"
         style="stop-color: #83a598; stop-opacity:1"
         id="stop35" />
    </linearGradient>
    <linearGradient
       id="60spsycho"
       x1="0"
       x2="0"
       y1="0"
       y2="1">
      <stop
         offset="0%"
         style="stop-color: #fb4934; stop-opacity:1"
         id="stop38" />
      <stop
         offset="25%"
         style="stop-color: #fabd2f; stop-opacity:1"
         id="stop40" />
      <stop
         offset="50%"
         style="stop-color: #fe8019; stop-opacity:1"
         id="stop42" />
      <stop
         offset="100%"
         style="stop-color: #689d6a; stop-opacity:1"
         id="stop44" />
    </linearGradient>
    <linearGradient
       id="90ssummer"
       x1="0"
       x2="0"
       y1="0"
       y2="1">
      <stop
         offset="0%"
         style="stop-color: #b16286; stop-opacity:1"
         id="stop47" />
      <stop
         offset="20%"
         style="stop-color: #8ec07c; stop-opacity:1"
         id="stop49" />
      <stop
         offset="50%"
         style="stop-color: #fabd2f; stop-opacity:1"
         id="stop51" />
      <stop
         offset="100%"
         style="stop-color: #458588; stop-opacity:1"
         id="stop53" />
    </linearGradient>
    <linearGradient
       id="cyberneon"
       x1="0"
       x2="0"
       y1="0"
       y2="1">
      <stop
         offset="0"
         style="stop-color:#83a598; stop-opacity:1"
         id="stop56" />
      <stop
         offset="1"
         style="stop-color:#b16286; stop-opacity:1"
         id="stop58" />
    </linearGradient>
  </defs>
  <path
     d="M 0.00210385,17.023999 V 35.2 c 0,38.4 15.99964915,44.8 33.45148415,49.024 2.211296,1.935462 4.36354,5.376 5.23625,5.376 h 18.622427 c 0.872711,0 3.024955,-3.440538 5.23625,-5.376 C 80.00035,79.547693 95.999999,73.6 95.999999,35.2 V 17.023999 C 95.999999,9.856 95.127289,0 89.018335,0 c 0,9.856 -12.217915,17.558068 -21.817704,17.92 H 28.801473 C 19.201683,17.92 6.9837684,9.856 6.9837684,0 0.87481432,0 0.00210385,9.856 0.00210385,17.023999 Z"
     style="opacity:0.6;fill:none;stroke-width:6.39993"
     id="path65" />
  <ellipse
     cx="28.801472"
     cy="41.599998"
     style="opacity:0.6;fill:none;stroke-width:6.39993"
     id="ellipse71"
     rx="15.999649"
     ry="16" />
  <ellipse
     style="opacity:0.6;fill:none;stroke-width:6.39993"
     cx="67.20063"
     cy="41.599998"
     id="ellipse75"
     rx="15.999649"
     ry="16" />
  <ellipse
     cx="48.001053"
     cy="83.199997"
     rx="19.199579"
     ry="12.8"
     style="opacity:0.6;fill:none;stroke-width:6.39993"
     id="ellipse77" />
  <g
     style="fill:#5657f5;fill-opacity:1"
     id="g916"
     transform="matrix(3.2009483,0,0,3.2436306,-3.2120797,-3.8923567)">
    <path
       d="m 25.431,25.209 c -1.263,1.135 0.142,2.284 1.388,1.552 0.277,-0.281 -0.008,-1.27 -1.387,-1.552 z M 7.296,27.041 c 0.98,0.849 2.496,-0.211 2.949,-1.395 -0.95,-1.262 -4.507,0.046 -2.949,1.395 z m 18.655,-2.987 c 0,0.562 4.141,0.931 4.141,-0.132 -0.397,-0.733 -1.16,-1.222 -2.038,-1.222 -0.929,0 -1.731,0.549 -2.097,1.34 z M 13.233,2.216 2.161,13.545 c -3.74,4.632 2.547,4.094 5.241,5.427 0.967,0.988 -3.705,1.718 -2.738,2.707 0.966,0.988 5.846,1.904 6.814,2.892 0.966,0.988 -1.979,2.037 -1.012,3.024 0.966,0.99 3.203,0.052 3.621,2.334 0.297,1.63 4.029,0.7 5.853,-0.635 0.967,-0.988 -1.849,-0.896 -0.882,-1.884 2.403,-2.458 4.642,-0.892 5.465,-3.357 0.406,-1.217 -3.539,-1.876 -2.571,-2.864 2.782,-1.625 12.395,-2.682 7.833,-7.243 L 18.311,2.216 C 17.652,1.587 16.757,1.2 15.772,1.2 c -0.985,0 -1.88,0.387 -2.54,1.017 z m 4.408,0.796 4.38,4.449 c 0.207,0.229 0.333,0.533 0.333,0.868 0,0.226 -0.058,0.438 -0.159,0.623 L 22.198,8.945 20.024,7.206 19.597,9.782 17.779,8.823 14.87,10.66 13.907,6.786 12.344,9.49 H 9.953 C 8.978,9.49 8.865,8.253 9.749,7.368 11.295,5.7 13.069,3.999 14.034,3.013 14.5,2.56 15.136,2.281 15.838,2.281 c 0.702,0 1.338,0.279 1.804,0.733 L 17.641,3.013 Z m -7.057,16.576 c 0.296,0.184 4.771,1.093 5.865,1.275 0.379,0.08 0.11,0.47 -0.412,0.734 -1.178,0.314 -6.894,-2.008 -5.452,-2.008 z"
       id="path907"
       style="fill:#5657f5;fill-opacity:1" />
  </g>
</svg>
