<?xml version="1.0" encoding="UTF-8" standalone="no"?>
<svg
   width="96"
   height="96"
   version="1.1"
   id="svg65"
   sodipodi:docname="thunderbird.svg"
   inkscape:version="1.1.2 (0a00cf5339, 2022-02-04)"
   xmlns:inkscape="http://www.inkscape.org/namespaces/inkscape"
   xmlns:sodipodi="http://sodipodi.sourceforge.net/DTD/sodipodi-0.dtd"
   xmlns="http://www.w3.org/2000/svg"
   xmlns:svg="http://www.w3.org/2000/svg">
  <sodipodi:namedview
     id="namedview67"
     pagecolor="#ffffff"
     bordercolor="#666666"
     borderopacity="1.0"
     inkscape:pageshadow="2"
     inkscape:pageopacity="0.0"
     inkscape:pagecheckerboard="0"
     showgrid="false"
     inkscape:zoom="7.4405523"
     inkscape:cx="42.738763"
     inkscape:cy="40.05079"
     inkscape:window-width="1887"
     inkscape:window-height="1046"
     inkscape:window-x="33"
     inkscape:window-y="0"
     inkscape:window-maximized="1"
     inkscape:current-layer="svg65" />
  <defs
     id="defs61">
    <style
       id="current-color-scheme"
       type="text/css">
   .ColorScheme-Text { color:#ebdbb2; } .ColorScheme-Highlight { color:#458588; }
  </style>
    <linearGradient
       id="arrongin"
       x1="0"
       x2="0"
       y1="0"
       y2="1">
      <stop
         offset="0%"
         style="stop-color:#d79921; stop-opacity:1"
         id="stop3" />
      <stop
         offset="100%"
         style="stop-color:#b57614; stop-opacity:1"
         id="stop5" />
    </linearGradient>
    <linearGradient
       id="aurora"
       x1="0"
       x2="0"
       y1="0"
       y2="1">
      <stop
         offset="0%"
         style="stop-color:#83a598; stop-opacity:1"
         id="stop8" />
      <stop
         offset="100%"
         style="stop-color:#b16286; stop-opacity:1"
         id="stop10" />
    </linearGradient>
    <linearGradient
       id="fitdance"
       x1="0"
       x2="0"
       y1="0"
       y2="1">
      <stop
         offset="0%"
         style="stop-color:#8ec07c; stop-opacity:1"
         id="stop13" />
      <stop
         offset="100%"
         style="stop-color:#458588; stop-opacity:1"
         id="stop15" />
    </linearGradient>
    <linearGradient
       id="oomox"
       x1="0"
       x2="0"
       y1="0"
       y2="1">
      <stop
         offset="0%"
         style="stop-color:#458588; stop-opacity:1"
         id="stop18" />
      <stop
         offset="100%"
         style="stop-color:#928374; stop-opacity:1"
         id="stop20" />
    </linearGradient>
    <linearGradient
       id="rainblue"
       x1="0"
       x2="0"
       y1="0"
       y2="1">
      <stop
         offset="0%"
         style="stop-color:#b8bb26; stop-opacity:1"
         id="stop23" />
      <stop
         offset="100%"
         style="stop-color:#076678; stop-opacity:1"
         id="stop25" />
    </linearGradient>
    <linearGradient
       id="sunrise"
       x1="0"
       x2="0"
       y1="0"
       y2="1">
      <stop
         offset="0%"
         style="stop-color: #fe8019; stop-opacity:1"
         id="stop28" />
      <stop
         offset="100%"
         style="stop-color: #fabd2f; stop-opacity:1"
         id="stop30" />
    </linearGradient>
    <linearGradient
       id="telinkrin"
       x1="0"
       x2="0"
       y1="0"
       y2="1">
      <stop
         offset="0%"
         style="stop-color: #83a598; stop-opacity:1"
         id="stop33" />
      <stop
         offset="100%"
         style="stop-color: #83a598; stop-opacity:1"
         id="stop35" />
    </linearGradient>
    <linearGradient
       id="60spsycho"
       x1="0"
       x2="0"
       y1="0"
       y2="1">
      <stop
         offset="0%"
         style="stop-color: #fb4934; stop-opacity:1"
         id="stop38" />
      <stop
         offset="25%"
         style="stop-color: #fabd2f; stop-opacity:1"
         id="stop40" />
      <stop
         offset="50%"
         style="stop-color: #fe8019; stop-opacity:1"
         id="stop42" />
      <stop
         offset="100%"
         style="stop-color: #689d6a; stop-opacity:1"
         id="stop44" />
    </linearGradient>
    <linearGradient
       id="90ssummer"
       x1="0"
       x2="0"
       y1="0"
       y2="1">
      <stop
         offset="0%"
         style="stop-color: #b16286; stop-opacity:1"
         id="stop47" />
      <stop
         offset="20%"
         style="stop-color: #8ec07c; stop-opacity:1"
         id="stop49" />
      <stop
         offset="50%"
         style="stop-color: #fabd2f; stop-opacity:1"
         id="stop51" />
      <stop
         offset="100%"
         style="stop-color: #458588; stop-opacity:1"
         id="stop53" />
    </linearGradient>
    <linearGradient
       id="cyberneon"
       x1="0"
       x2="0"
       y1="0"
       y2="1">
      <stop
         offset="0"
         style="stop-color:#83a598; stop-opacity:1"
         id="stop56" />
      <stop
         offset="1"
         style="stop-color:#b16286; stop-opacity:1"
         id="stop58" />
    </linearGradient>
  </defs>
  <g
     style="fill:#5657f5;fill-opacity:1"
     id="g909"
     transform="matrix(3.9999948,0,0,4.0676263,0,-0.81113285)">
    <path
       d="M 23.7296,10.23 C 23.5046,9.0304 23.036,7.8683 22.3988,6.8187 22.2182,6.4954 21.9816,6.1892 21.7802,5.9002 20.4307,4.0071 19.3622,3.3698 19.1561,3.2573 18.9687,3.1261 18.7812,2.9949 18.5938,2.8825 16.8506,1.7953 15.726,1.6454 15.726,1.6454 14.92,1.308 14.1328,1.1206 13.5517,1.0268 c -1.2558,-0.15 -2.3055,-0.1312 -3.2239,0 0.15,-0.2624 0.2812,-0.356 0.3186,-0.3748 0.0232,0 0.0166,0 0,0 C 10.1966,0.6895 9.653,0.9894 9.1657,1.2893 9.503,0.6333 10.2153,0.2583 10.309,0.202 h 0.0187 C 9.7655,0.1646 8.1723,0.5208 6.804,2.0391 2.549,3.8196 0,7.7183 0,11.973 c 0,3.224 1.2558,5.5482 2.6241,7.0852 1.2933,1.4058 2.7179,2.1555 3.3926,2.3617 0.0708,0.0279 0.225,0.0375 0.225,0.0375 0.0187,-0.0562 -0.8622,-1.462 -1.2559,-3.149 0.7873,0.806 1.7245,1.4246 2.7741,1.537 0.1125,0.0188 -0.3749,-0.581 -0.8997,-1.3682 l 0.7123,0.2436 7.8161,2.6054 c -0.7685,0.7872 -1.7994,1.5557 -3.2052,2.2305 0,0 3.149,-0.2624 4.7047,-2.0056 -0.6373,1.462 -2.3805,2.2493 -2.3805,2.2493 1.2746,-0.1875 4.6485,-1.1809 6.7853,-3.8612 2.4367,-3.0365 3.1677,-5.8856 2.4367,-9.7093 z m -6.223,7.1039 c -0.2436,1.1808 -0.7497,2.493 -1.893,3.7487 L 1.7993,16.4904 c -0.3936,-1.2558 -0.581,-2.7178 -0.4686,-4.4235 0.2437,0.4499 0.9747,0.8247 1.4245,0.8435 -1.0496,-2.343 -0.6373,-3.955 0.15,-5.0233 A 635.68,635.68 0 0 1 3.9361,9.4053 V 9.2928 C 3.9548,9.1428 3.9736,9.0304 4.0111,8.918 3.6549,8.3931 3.3551,7.9433 3.1301,7.6246 3.5612,7.1373 4.0485,6.7812 4.4797,6.5375 4.4984,6.7437 4.5359,6.9311 4.5921,7.156 4.6671,7.4747 4.6858,7.9433 4.6483,8.3182 V 8.2994 c 0,0.075 -0.0187,0.15 -0.0374,0.225 -0.0188,0.075 -0.225,0.281 -0.2812,0.8247 -0.0562,0.581 0.15,0.8997 0.3561,1.1433 C 4.9295,10.2675 5.3794,9.7052 6.2041,9.3865 7.0288,9.0492 7.5724,8.5618 8.6221,8.037 9.2406,7.7184 9.8966,7.7558 10.7213,7.7933 c 1.4808,0.2624 3.4301,0.7873 5.2483,0.881 0.4123,0.9747 0.581,2.3804 0.581,2.418 0,0.1311 0.0188,0.2436 0.0188,0.356 -3.224,1.2184 -7.0102,2.6054 -8.6034,3.0178 -0.1312,0.0375 -1.5183,-1.968 -2.8116,-3.88 -0.0187,0.0375 -0.0562,0.0563 -0.075,0.075 -0.0374,0.0375 -0.075,0.075 -0.0937,0.1125 H 4.8733 c 1.387,2.043 2.8678,4.161 3.0177,4.161 1.4058,-0.506 5.6044,-1.9493 8.6596,-2.9989 -0.0187,2.3055 -0.581,3.1677 -0.581,3.1677 0,0 0.7685,-0.3 1.5557,-1.0871 0,0.6372 -0.1687,2.2867 -1.4995,3.8799 0,0 0.6935,-0.1874 1.4807,-0.5623 z"
       id="path900"
       style="fill:#5657f5;fill-opacity:1" />
  </g>
</svg>
